; GCODE Generated by cam.openbuilds.com on 2021-03-08 
G21 ; mm-mode
G54; Work Coordinates
G21; mm-mode
G90; Absolute Positioning
M3 S1000; Spindle On

; Operation 0: Drill: Continuous (Centered)
; Endmill Diameter: 6

G0 Z10; move to z-safe height
G0 F1000 X228.4539 Y57.7080

G0 Z0
G1 F100 Z0.0000
G1 F750 X228.4539 Y57.7080 Z-1.5000 S1000
G1 F750 X228.4539 Y57.7080 Z0.0000 S1000

G0 Z10; move to z-safe height
G0 X6.5461 Y57.7080

G0 Z0
G1 F100 Z0.0000
G1 F750 X6.5461 Y57.7080 Z-1.5000 S1000
G1 F750 X6.5461 Y57.7080 Z0.0000 S1000

G0 Z10; move to z-safe height
G0 X6.5461 Y93.2915

G0 Z0
G1 F100 Z0.0000
G1 F750 X6.5461 Y93.2915 Z-1.5000 S1000
G1 F750 X6.5461 Y93.2915 Z0.0000 S1000

G0 Z10; move to z-safe height
G0 X228.4539 Y93.2915

G0 Z0
G1 F100 Z0.0000
G1 F750 X228.4539 Y93.2915 Z-1.5000 S1000
G1 F750 X228.4539 Y93.2915 Z0.0000 S1000
; retracting back to z-safe
G0 Z10
; Operation 1: CNC: Vector (path outside)
; Endmill Diameter: 6

G0 Z10; move to z-safe height
G0 F1000 X232.0000 Y-3.0000

G0 Z0
G1 F100 Z-2.5000
G1 F750 X3.0000 Y-3.0000 Z-2.5000 S1000
G1 F750 X2.6346 Y-2.9777 Z-2.5000 S1000
G1 F750 X1.6925 Y-2.8621 Z-2.5000 S1000
G1 F750 X0.7939 Y-2.6051 Z-2.5000 S1000
G1 F750 X-0.0647 Y-2.2062 Z-2.5000 S1000
G1 F750 X-0.4428 Y-1.9962 Z-2.5000 S1000
G1 F750 X-0.9741 Y-1.5534 Z-2.5000 S1000
G1 F750 X-1.6264 Y-0.8678 Z-2.5000 S1000
G1 F750 X-2.1839 Y-0.0417 Z-2.5000 S1000
G1 F750 X-2.5765 Y0.8217 Z-2.5000 S1000
G1 F750 X-2.8056 Y1.5755 Z-2.5000 S1000
G1 F750 X-2.9600 Y2.5120 Z-2.5000 S1000
G1 F750 X-3.0000 Y3.0000 Z-2.5000 S1000
G1 F750 X-3.0000 Y148.0000 Z-2.5000 S1000
G1 F750 X-2.9600 Y148.4880 Z-2.5000 S1000
G1 F750 X-2.8056 Y149.4245 Z-2.5000 S1000
G1 F750 X-2.5765 Y150.1783 Z-2.5000 S1000
G1 F750 X-2.1839 Y151.0417 Z-2.5000 S1000
G1 F750 X-1.6264 Y151.8678 Z-2.5000 S1000
G1 F750 X-0.9741 Y152.5534 Z-2.5000 S1000
G1 F750 X-0.6542 Y152.8444 Z-2.5000 S1000
G1 F750 X-0.0647 Y153.2062 Z-2.5000 S1000
G1 F750 X0.7939 Y153.6051 Z-2.5000 S1000
G1 F750 X1.6925 Y153.8621 Z-2.5000 S1000
G1 F750 X2.6346 Y153.9777 Z-2.5000 S1000
G1 F750 X3.0000 Y154.0000 Z-2.5000 S1000
G1 F750 X232.0000 Y154.0000 Z-2.5000 S1000
G1 F750 X232.3654 Y153.9777 Z-2.5000 S1000
G1 F750 X233.3075 Y153.8621 Z-2.5000 S1000
G1 F750 X234.2061 Y153.6051 Z-2.5000 S1000
G1 F750 X235.0647 Y153.2062 Z-2.5000 S1000
G1 F750 X235.4428 Y152.9962 Z-2.5000 S1000
G1 F750 X235.9741 Y152.5534 Z-2.5000 S1000
G1 F750 X236.6264 Y151.8678 Z-2.5000 S1000
G1 F750 X237.1839 Y151.0417 Z-2.5000 S1000
G1 F750 X237.5765 Y150.1783 Z-2.5000 S1000
G1 F750 X237.8056 Y149.4245 Z-2.5000 S1000
G1 F750 X237.9600 Y148.4880 Z-2.5000 S1000
G1 F750 X238.0000 Y148.0000 Z-2.5000 S1000
G1 F750 X238.0000 Y3.0000 Z-2.5000 S1000
G1 F750 X237.9777 Y2.6346 Z-2.5000 S1000
G1 F750 X237.8621 Y1.6925 Z-2.5000 S1000
G1 F750 X237.6051 Y0.7939 Z-2.5000 S1000
G1 F750 X237.2062 Y-0.0647 Z-2.5000 S1000
G1 F750 X236.9962 Y-0.4428 Z-2.5000 S1000
G1 F750 X236.5534 Y-0.9741 Z-2.5000 S1000
G1 F750 X235.8678 Y-1.6264 Z-2.5000 S1000
G1 F750 X235.0417 Y-2.1839 Z-2.5000 S1000
G1 F750 X234.1783 Y-2.5765 Z-2.5000 S1000
G1 F750 X233.4245 Y-2.8056 Z-2.5000 S1000
G1 F750 X232.4880 Y-2.9600 Z-2.5000 S1000
G1 F750 X232.0000 Y-3.0000 Z-2.5000 S1000
G1 F100 Z-5.0000
G1 F750 X3.0000 Y-3.0000 Z-5.0000 S1000
G1 F750 X2.6346 Y-2.9777 Z-5.0000 S1000
G1 F750 X1.6925 Y-2.8621 Z-5.0000 S1000
G1 F750 X0.7939 Y-2.6051 Z-5.0000 S1000
G1 F750 X-0.0647 Y-2.2062 Z-5.0000 S1000
G1 F750 X-0.4428 Y-1.9962 Z-5.0000 S1000
G1 F750 X-0.9741 Y-1.5534 Z-5.0000 S1000
G1 F750 X-1.6264 Y-0.8678 Z-5.0000 S1000
G1 F750 X-2.1839 Y-0.0417 Z-5.0000 S1000
G1 F750 X-2.5765 Y0.8217 Z-5.0000 S1000
G1 F750 X-2.8056 Y1.5755 Z-5.0000 S1000
G1 F750 X-2.9600 Y2.5120 Z-5.0000 S1000
G1 F750 X-3.0000 Y3.0000 Z-5.0000 S1000
G1 F750 X-3.0000 Y148.0000 Z-5.0000 S1000
G1 F750 X-2.9600 Y148.4880 Z-5.0000 S1000
G1 F750 X-2.8056 Y149.4245 Z-5.0000 S1000
G1 F750 X-2.5765 Y150.1783 Z-5.0000 S1000
G1 F750 X-2.1839 Y151.0417 Z-5.0000 S1000
G1 F750 X-1.6264 Y151.8678 Z-5.0000 S1000
G1 F750 X-0.9741 Y152.5534 Z-5.0000 S1000
G1 F750 X-0.6542 Y152.8444 Z-5.0000 S1000
G1 F750 X-0.0647 Y153.2062 Z-5.0000 S1000
G1 F750 X0.7939 Y153.6051 Z-5.0000 S1000
G1 F750 X1.6925 Y153.8621 Z-5.0000 S1000
G1 F750 X2.6346 Y153.9777 Z-5.0000 S1000
G1 F750 X3.0000 Y154.0000 Z-5.0000 S1000
G1 F750 X232.0000 Y154.0000 Z-5.0000 S1000
G1 F750 X232.3654 Y153.9777 Z-5.0000 S1000
G1 F750 X233.3075 Y153.8621 Z-5.0000 S1000
G1 F750 X234.2061 Y153.6051 Z-5.0000 S1000
G1 F750 X235.0647 Y153.2062 Z-5.0000 S1000
G1 F750 X235.4428 Y152.9962 Z-5.0000 S1000
G1 F750 X235.9741 Y152.5534 Z-5.0000 S1000
G1 F750 X236.6264 Y151.8678 Z-5.0000 S1000
G1 F750 X237.1839 Y151.0417 Z-5.0000 S1000
G1 F750 X237.5765 Y150.1783 Z-5.0000 S1000
G1 F750 X237.8056 Y149.4245 Z-5.0000 S1000
G1 F750 X237.9600 Y148.4880 Z-5.0000 S1000
G1 F750 X238.0000 Y148.0000 Z-5.0000 S1000
G1 F750 X238.0000 Y3.0000 Z-5.0000 S1000
G1 F750 X237.9777 Y2.6346 Z-5.0000 S1000
G1 F750 X237.8621 Y1.6925 Z-5.0000 S1000
G1 F750 X237.6051 Y0.7939 Z-5.0000 S1000
G1 F750 X237.2062 Y-0.0647 Z-5.0000 S1000
G1 F750 X236.9962 Y-0.4428 Z-5.0000 S1000
G1 F750 X236.5534 Y-0.9741 Z-5.0000 S1000
G1 F750 X235.8678 Y-1.6264 Z-5.0000 S1000
G1 F750 X235.0417 Y-2.1839 Z-5.0000 S1000
G1 F750 X234.1783 Y-2.5765 Z-5.0000 S1000
G1 F750 X233.4245 Y-2.8056 Z-5.0000 S1000
G1 F750 X232.4880 Y-2.9600 Z-5.0000 S1000
G1 F750 X232.0000 Y-3.0000 Z-5.0000 S1000
G1 F100 Z-7.5000
G1 F750 X123.5000 Y-3.0000 Z-7.5000 S1000
G1 F750 X123.5000 Y-3.0000 Z-6.0000 S1000
G1 F750 X111.5000 Y-3.0000 Z-6.0000 S1000
G1 F750 X111.5000 Y-3.0000 Z-7.5000 S1000
G1 F750 X3.0000 Y-3.0000 Z-7.5000 S1000
G1 F750 X3.0000 Y-3.0000 Z-7.5000 S1000
G1 F750 X2.6346 Y-2.9777 Z-7.5000 S1000
G1 F750 X1.6925 Y-2.8621 Z-7.5000 S1000
G1 F750 X0.7939 Y-2.6051 Z-7.5000 S1000
G1 F750 X-0.0647 Y-2.2062 Z-7.5000 S1000
G1 F750 X-0.4428 Y-1.9962 Z-7.5000 S1000
G1 F750 X-0.9741 Y-1.5534 Z-7.5000 S1000
G1 F750 X-1.6264 Y-0.8678 Z-7.5000 S1000
G1 F750 X-2.1839 Y-0.0417 Z-7.5000 S1000
G1 F750 X-2.5765 Y0.8217 Z-7.5000 S1000
G1 F750 X-2.8056 Y1.5755 Z-7.5000 S1000
G1 F750 X-2.9600 Y2.5120 Z-7.5000 S1000
G1 F750 X-3.0000 Y3.0000 Z-7.5000 S1000
G1 F750 X-3.0000 Y69.5000 Z-7.5000 S1000
G1 F750 X-3.0000 Y69.5000 Z-6.0000 S1000
G1 F750 X-3.0000 Y81.5000 Z-6.0000 S1000
G1 F750 X-3.0000 Y81.5000 Z-7.5000 S1000
G1 F750 X-3.0000 Y148.0000 Z-7.5000 S1000
G1 F750 X-3.0000 Y148.0000 Z-7.5000 S1000
G1 F750 X-2.9600 Y148.4880 Z-7.5000 S1000
G1 F750 X-2.8056 Y149.4245 Z-7.5000 S1000
G1 F750 X-2.5765 Y150.1783 Z-7.5000 S1000
G1 F750 X-2.1839 Y151.0417 Z-7.5000 S1000
G1 F750 X-1.6264 Y151.8678 Z-7.5000 S1000
G1 F750 X-0.9741 Y152.5534 Z-7.5000 S1000
G1 F750 X-0.6542 Y152.8444 Z-7.5000 S1000
G1 F750 X-0.0647 Y153.2062 Z-7.5000 S1000
G1 F750 X0.7939 Y153.6051 Z-7.5000 S1000
G1 F750 X1.6925 Y153.8621 Z-7.5000 S1000
G1 F750 X2.6346 Y153.9777 Z-7.5000 S1000
G1 F750 X3.0000 Y154.0000 Z-7.5000 S1000
G1 F750 X111.5000 Y154.0000 Z-7.5000 S1000
G1 F750 X111.5000 Y154.0000 Z-6.0000 S1000
G1 F750 X123.5000 Y154.0000 Z-6.0000 S1000
G1 F750 X123.5000 Y154.0000 Z-7.5000 S1000
G1 F750 X232.0000 Y154.0000 Z-7.5000 S1000
G1 F750 X232.0000 Y154.0000 Z-7.5000 S1000
G1 F750 X232.3654 Y153.9777 Z-7.5000 S1000
G1 F750 X233.3075 Y153.8621 Z-7.5000 S1000
G1 F750 X234.2061 Y153.6051 Z-7.5000 S1000
G1 F750 X235.0647 Y153.2062 Z-7.5000 S1000
G1 F750 X235.4428 Y152.9962 Z-7.5000 S1000
G1 F750 X235.9741 Y152.5534 Z-7.5000 S1000
G1 F750 X236.6264 Y151.8678 Z-7.5000 S1000
G1 F750 X237.1839 Y151.0417 Z-7.5000 S1000
G1 F750 X237.5765 Y150.1783 Z-7.5000 S1000
G1 F750 X237.8056 Y149.4245 Z-7.5000 S1000
G1 F750 X237.9600 Y148.4880 Z-7.5000 S1000
G1 F750 X238.0000 Y148.0000 Z-7.5000 S1000
G1 F750 X238.0000 Y81.5000 Z-7.5000 S1000
G1 F750 X238.0000 Y81.5000 Z-6.0000 S1000
G1 F750 X238.0000 Y69.5000 Z-6.0000 S1000
G1 F750 X238.0000 Y69.5000 Z-7.5000 S1000
G1 F750 X238.0000 Y3.0000 Z-7.5000 S1000
G1 F750 X238.0000 Y3.0000 Z-7.5000 S1000
G1 F750 X237.9777 Y2.6346 Z-7.5000 S1000
G1 F750 X237.8621 Y1.6925 Z-7.5000 S1000
G1 F750 X237.6051 Y0.7939 Z-7.5000 S1000
G1 F750 X237.2062 Y-0.0647 Z-7.5000 S1000
G1 F750 X236.9962 Y-0.4428 Z-7.5000 S1000
G1 F750 X236.5534 Y-0.9741 Z-7.5000 S1000
G1 F750 X235.8678 Y-1.6264 Z-7.5000 S1000
G1 F750 X235.0417 Y-2.1839 Z-7.5000 S1000
G1 F750 X234.1783 Y-2.5765 Z-7.5000 S1000
G1 F750 X233.4245 Y-2.8056 Z-7.5000 S1000
G1 F750 X232.4880 Y-2.9600 Z-7.5000 S1000
G1 F750 X232.0000 Y-3.0000 Z-7.5000 S1000
G1 F100 Z-9.0000
G1 F750 X123.5000 Y-3.0000 Z-9.0000 S1000
G1 F750 X123.5000 Y-3.0000 Z-6.0000 S1000
G1 F750 X111.5000 Y-3.0000 Z-6.0000 S1000
G1 F750 X111.5000 Y-3.0000 Z-9.0000 S1000
G1 F750 X3.0000 Y-3.0000 Z-9.0000 S1000
G1 F750 X3.0000 Y-3.0000 Z-9.0000 S1000
G1 F750 X2.6346 Y-2.9777 Z-9.0000 S1000
G1 F750 X1.6925 Y-2.8621 Z-9.0000 S1000
G1 F750 X0.7939 Y-2.6051 Z-9.0000 S1000
G1 F750 X-0.0647 Y-2.2062 Z-9.0000 S1000
G1 F750 X-0.4428 Y-1.9962 Z-9.0000 S1000
G1 F750 X-0.9741 Y-1.5534 Z-9.0000 S1000
G1 F750 X-1.6264 Y-0.8678 Z-9.0000 S1000
G1 F750 X-2.1839 Y-0.0417 Z-9.0000 S1000
G1 F750 X-2.5765 Y0.8217 Z-9.0000 S1000
G1 F750 X-2.8056 Y1.5755 Z-9.0000 S1000
G1 F750 X-2.9600 Y2.5120 Z-9.0000 S1000
G1 F750 X-3.0000 Y3.0000 Z-9.0000 S1000
G1 F750 X-3.0000 Y69.5000 Z-9.0000 S1000
G1 F750 X-3.0000 Y69.5000 Z-6.0000 S1000
G1 F750 X-3.0000 Y81.5000 Z-6.0000 S1000
G1 F750 X-3.0000 Y81.5000 Z-9.0000 S1000
G1 F750 X-3.0000 Y148.0000 Z-9.0000 S1000
G1 F750 X-3.0000 Y148.0000 Z-9.0000 S1000
G1 F750 X-2.9600 Y148.4880 Z-9.0000 S1000
G1 F750 X-2.8056 Y149.4245 Z-9.0000 S1000
G1 F750 X-2.5765 Y150.1783 Z-9.0000 S1000
G1 F750 X-2.1839 Y151.0417 Z-9.0000 S1000
G1 F750 X-1.6264 Y151.8678 Z-9.0000 S1000
G1 F750 X-0.9741 Y152.5534 Z-9.0000 S1000
G1 F750 X-0.6542 Y152.8444 Z-9.0000 S1000
G1 F750 X-0.0647 Y153.2062 Z-9.0000 S1000
G1 F750 X0.7939 Y153.6051 Z-9.0000 S1000
G1 F750 X1.6925 Y153.8621 Z-9.0000 S1000
G1 F750 X2.6346 Y153.9777 Z-9.0000 S1000
G1 F750 X3.0000 Y154.0000 Z-9.0000 S1000
G1 F750 X111.5000 Y154.0000 Z-9.0000 S1000
G1 F750 X111.5000 Y154.0000 Z-6.0000 S1000
G1 F750 X123.5000 Y154.0000 Z-6.0000 S1000
G1 F750 X123.5000 Y154.0000 Z-9.0000 S1000
G1 F750 X232.0000 Y154.0000 Z-9.0000 S1000
G1 F750 X232.0000 Y154.0000 Z-9.0000 S1000
G1 F750 X232.3654 Y153.9777 Z-9.0000 S1000
G1 F750 X233.3075 Y153.8621 Z-9.0000 S1000
G1 F750 X234.2061 Y153.6051 Z-9.0000 S1000
G1 F750 X235.0647 Y153.2062 Z-9.0000 S1000
G1 F750 X235.4428 Y152.9962 Z-9.0000 S1000
G1 F750 X235.9741 Y152.5534 Z-9.0000 S1000
G1 F750 X236.6264 Y151.8678 Z-9.0000 S1000
G1 F750 X237.1839 Y151.0417 Z-9.0000 S1000
G1 F750 X237.5765 Y150.1783 Z-9.0000 S1000
G1 F750 X237.8056 Y149.4245 Z-9.0000 S1000
G1 F750 X237.9600 Y148.4880 Z-9.0000 S1000
G1 F750 X238.0000 Y148.0000 Z-9.0000 S1000
G1 F750 X238.0000 Y81.5000 Z-9.0000 S1000
G1 F750 X238.0000 Y81.5000 Z-6.0000 S1000
G1 F750 X238.0000 Y69.5000 Z-6.0000 S1000
G1 F750 X238.0000 Y69.5000 Z-9.0000 S1000
G1 F750 X238.0000 Y3.0000 Z-9.0000 S1000
G1 F750 X238.0000 Y3.0000 Z-9.0000 S1000
G1 F750 X237.9777 Y2.6346 Z-9.0000 S1000
G1 F750 X237.8621 Y1.6925 Z-9.0000 S1000
G1 F750 X237.6051 Y0.7939 Z-9.0000 S1000
G1 F750 X237.2062 Y-0.0647 Z-9.0000 S1000
G1 F750 X236.9962 Y-0.4428 Z-9.0000 S1000
G1 F750 X236.5534 Y-0.9741 Z-9.0000 S1000
G1 F750 X235.8678 Y-1.6264 Z-9.0000 S1000
G1 F750 X235.0417 Y-2.1839 Z-9.0000 S1000
G1 F750 X234.1783 Y-2.5765 Z-9.0000 S1000
G1 F750 X233.4245 Y-2.8056 Z-9.0000 S1000
G1 F750 X232.4880 Y-2.9600 Z-9.0000 S1000
G1 F750 X232.0000 Y-3.0000 Z-9.0000 S1000
; retracting back to z-safe
G0 Z10

M5 S0; Spindle Off
