; GCODE Generated by cam.openbuilds.com on 2021-02-23 
G21 ; mm-mode
G54; Work Coordinates
G21; mm-mode
G90; Absolute Positioning
M3 S1000; Spindle On

; Operation 0: CNC: Pocket
; Endmill Diameter: 3.17

G0 Z10; move to z-safe height
G0 F1000 X7.7887 Y10.1960

G0 Z0
G1 F300 Z-1.0000
G1 F1000 X3.8040 Y10.1960 Z-1.0000 S1000
G1 F1000 X3.8040 Y9.8040 Z-1.0000 S1000
G1 F1000 X7.7887 Y9.8040 Z-1.0000 S1000
G1 F1000 X7.7887 Y10.1960 Z-1.0000 S1000
G1 F300 Z-2.0000
G1 F1000 X3.8040 Y10.1960 Z-2.0000 S1000
G1 F1000 X3.8040 Y9.8040 Z-2.0000 S1000
G1 F1000 X7.7887 Y9.8040 Z-2.0000 S1000
G1 F1000 X7.7887 Y10.1960 Z-2.0000 S1000
G1 F300 Z-3.0000
G1 F1000 X3.8040 Y10.1960 Z-3.0000 S1000
G1 F1000 X3.8040 Y9.8040 Z-3.0000 S1000
G1 F1000 X7.7887 Y9.8040 Z-3.0000 S1000
G1 F1000 X7.7887 Y10.1960 Z-3.0000 S1000
G1 F300 Z-4.0000
G1 F1000 X3.8040 Y10.1960 Z-4.0000 S1000
G1 F1000 X3.8040 Y9.8040 Z-4.0000 S1000
G1 F1000 X7.7887 Y9.8040 Z-4.0000 S1000
G1 F1000 X7.7887 Y10.1960 Z-4.0000 S1000

G0 Z10; move to z-safe height
G0 X9.0567 Y11.4640

G0 Z0
G1 F300 Z-1.0000
G1 F1000 X2.5360 Y11.4640 Z-1.0000 S1000
G1 F1000 X2.5360 Y8.5360 Z-1.0000 S1000
G1 F1000 X9.0567 Y8.5360 Z-1.0000 S1000
G1 F1000 X9.0567 Y11.4640 Z-1.0000 S1000
G1 F300 Z-2.0000
G1 F1000 X2.5360 Y11.4640 Z-2.0000 S1000
G1 F1000 X2.5360 Y8.5360 Z-2.0000 S1000
G1 F1000 X9.0567 Y8.5360 Z-2.0000 S1000
G1 F1000 X9.0567 Y11.4640 Z-2.0000 S1000
G1 F300 Z-3.0000
G1 F1000 X2.5360 Y11.4640 Z-3.0000 S1000
G1 F1000 X2.5360 Y8.5360 Z-3.0000 S1000
G1 F1000 X9.0567 Y8.5360 Z-3.0000 S1000
G1 F1000 X9.0567 Y11.4640 Z-3.0000 S1000
G1 F300 Z-4.0000
G1 F1000 X2.5360 Y11.4640 Z-4.0000 S1000
G1 F1000 X2.5360 Y8.5360 Z-4.0000 S1000
G1 F1000 X9.0567 Y8.5360 Z-4.0000 S1000
G1 F1000 X9.0567 Y11.4640 Z-4.0000 S1000

G0 Z10; move to z-safe height
G0 X10.0077 Y12.4150

G0 Z0
G1 F300 Z-1.0000
G1 F1000 X1.5850 Y12.4150 Z-1.0000 S1000
G1 F1000 X1.5850 Y7.5850 Z-1.0000 S1000
G1 F1000 X10.0077 Y7.5850 Z-1.0000 S1000
G1 F1000 X10.0077 Y12.4150 Z-1.0000 S1000
G1 F300 Z-2.0000
G1 F1000 X1.5850 Y12.4150 Z-2.0000 S1000
G1 F1000 X1.5850 Y7.5850 Z-2.0000 S1000
G1 F1000 X10.0077 Y7.5850 Z-2.0000 S1000
G1 F1000 X10.0077 Y12.4150 Z-2.0000 S1000
G1 F300 Z-3.0000
G1 F1000 X1.5850 Y12.4150 Z-3.0000 S1000
G1 F1000 X1.5850 Y7.5850 Z-3.0000 S1000
G1 F1000 X10.0077 Y7.5850 Z-3.0000 S1000
G1 F1000 X10.0077 Y12.4150 Z-3.0000 S1000
G1 F300 Z-4.0000
G1 F1000 X1.5850 Y12.4150 Z-4.0000 S1000
G1 F1000 X1.5850 Y7.5850 Z-4.0000 S1000
G1 F1000 X10.0077 Y7.5850 Z-4.0000 S1000
G1 F1000 X10.0077 Y12.4150 Z-4.0000 S1000
; retracting back to z-safe
G0 Z10
; Operation 1: CNC: Vector (path inside)
; Endmill Diameter: 3.17

G0 Z10; move to z-safe height
G0 F1000 X6.1727 Y9.0909

G0 Z0
G1 F100 Z-1.0000
G1 F600 X6.4922 Y9.3043 Z-1.0000 S1000
G1 F600 X6.7055 Y9.6236 Z-1.0000 S1000
G1 F600 X6.7804 Y10.0000 Z-1.0000 S1000
G1 F600 X6.7055 Y10.3764 Z-1.0000 S1000
G1 F600 X6.4922 Y10.6957 Z-1.0000 S1000
G1 F600 X6.1727 Y10.9091 Z-1.0000 S1000
G1 F600 X5.7964 Y10.9840 Z-1.0000 S1000
G1 F600 X5.4200 Y10.9091 Z-1.0000 S1000
G1 F600 X5.1006 Y10.6958 Z-1.0000 S1000
G1 F600 X4.8873 Y10.3764 Z-1.0000 S1000
G1 F600 X4.8124 Y10.0000 Z-1.0000 S1000
G1 F600 X4.8873 Y9.6236 Z-1.0000 S1000
G1 F600 X5.1006 Y9.3042 Z-1.0000 S1000
G1 F600 X5.4200 Y9.0909 Z-1.0000 S1000
G1 F600 X5.7964 Y9.0160 Z-1.0000 S1000
G1 F600 X6.1727 Y9.0909 Z-1.0000 S1000
G1 F100 Z-2.0000
G1 F600 X6.4922 Y9.3043 Z-2.0000 S1000
G1 F600 X6.7055 Y9.6236 Z-2.0000 S1000
G1 F600 X6.7804 Y10.0000 Z-2.0000 S1000
G1 F600 X6.7055 Y10.3764 Z-2.0000 S1000
G1 F600 X6.4922 Y10.6957 Z-2.0000 S1000
G1 F600 X6.1727 Y10.9091 Z-2.0000 S1000
G1 F600 X5.7964 Y10.9840 Z-2.0000 S1000
G1 F600 X5.4200 Y10.9091 Z-2.0000 S1000
G1 F600 X5.1006 Y10.6958 Z-2.0000 S1000
G1 F600 X4.8873 Y10.3764 Z-2.0000 S1000
G1 F600 X4.8124 Y10.0000 Z-2.0000 S1000
G1 F600 X4.8873 Y9.6236 Z-2.0000 S1000
G1 F600 X5.1006 Y9.3042 Z-2.0000 S1000
G1 F600 X5.4200 Y9.0909 Z-2.0000 S1000
G1 F600 X5.7964 Y9.0160 Z-2.0000 S1000
G1 F600 X6.1727 Y9.0909 Z-2.0000 S1000
G1 F100 Z-3.0000
G1 F600 X6.4922 Y9.3043 Z-3.0000 S1000
G1 F600 X6.7055 Y9.6236 Z-3.0000 S1000
G1 F600 X6.7804 Y10.0000 Z-3.0000 S1000
G1 F600 X6.7055 Y10.3764 Z-3.0000 S1000
G1 F600 X6.4922 Y10.6957 Z-3.0000 S1000
G1 F600 X6.1727 Y10.9091 Z-3.0000 S1000
G1 F600 X5.7964 Y10.9840 Z-3.0000 S1000
G1 F600 X5.4200 Y10.9091 Z-3.0000 S1000
G1 F600 X5.1006 Y10.6958 Z-3.0000 S1000
G1 F600 X4.8873 Y10.3764 Z-3.0000 S1000
G1 F600 X4.8124 Y10.0000 Z-3.0000 S1000
G1 F600 X4.8873 Y9.6236 Z-3.0000 S1000
G1 F600 X5.1006 Y9.3042 Z-3.0000 S1000
G1 F600 X5.4200 Y9.0909 Z-3.0000 S1000
G1 F600 X5.7964 Y9.0160 Z-3.0000 S1000
G1 F600 X6.1727 Y9.0909 Z-3.0000 S1000
G1 F100 Z-4.0000
G1 F600 X6.4922 Y9.3043 Z-4.0000 S1000
G1 F600 X6.7055 Y9.6236 Z-4.0000 S1000
G1 F600 X6.7804 Y10.0000 Z-4.0000 S1000
G1 F600 X6.7055 Y10.3764 Z-4.0000 S1000
G1 F600 X6.4922 Y10.6957 Z-4.0000 S1000
G1 F600 X6.1727 Y10.9091 Z-4.0000 S1000
G1 F600 X5.7964 Y10.9840 Z-4.0000 S1000
G1 F600 X5.4200 Y10.9091 Z-4.0000 S1000
G1 F600 X5.1006 Y10.6958 Z-4.0000 S1000
G1 F600 X4.8873 Y10.3764 Z-4.0000 S1000
G1 F600 X4.8124 Y10.0000 Z-4.0000 S1000
G1 F600 X4.8873 Y9.6236 Z-4.0000 S1000
G1 F600 X5.1006 Y9.3042 Z-4.0000 S1000
G1 F600 X5.4200 Y9.0909 Z-4.0000 S1000
G1 F600 X5.7964 Y9.0160 Z-4.0000 S1000
G1 F600 X6.1727 Y9.0909 Z-4.0000 S1000
G1 F100 Z-5.0000
G1 F600 X6.4922 Y9.3043 Z-5.0000 S1000
G1 F600 X6.7055 Y9.6236 Z-5.0000 S1000
G1 F600 X6.7804 Y10.0000 Z-5.0000 S1000
G1 F600 X6.7055 Y10.3764 Z-5.0000 S1000
G1 F600 X6.4922 Y10.6957 Z-5.0000 S1000
G1 F600 X6.1727 Y10.9091 Z-5.0000 S1000
G1 F600 X5.7964 Y10.9840 Z-5.0000 S1000
G1 F600 X5.4200 Y10.9091 Z-5.0000 S1000
G1 F600 X5.1006 Y10.6958 Z-5.0000 S1000
G1 F600 X4.8873 Y10.3764 Z-5.0000 S1000
G1 F600 X4.8124 Y10.0000 Z-5.0000 S1000
G1 F600 X4.8873 Y9.6236 Z-5.0000 S1000
G1 F600 X5.1006 Y9.3042 Z-5.0000 S1000
G1 F600 X5.4200 Y9.0909 Z-5.0000 S1000
G1 F600 X5.7964 Y9.0160 Z-5.0000 S1000
G1 F600 X6.1727 Y9.0909 Z-5.0000 S1000
G1 F100 Z-6.0000
G1 F600 X6.4922 Y9.3043 Z-6.0000 S1000
G1 F600 X6.7055 Y9.6236 Z-6.0000 S1000
G1 F600 X6.7804 Y10.0000 Z-6.0000 S1000
G1 F600 X6.7055 Y10.3764 Z-6.0000 S1000
G1 F600 X6.4922 Y10.6957 Z-6.0000 S1000
G1 F600 X6.1727 Y10.9091 Z-6.0000 S1000
G1 F600 X5.7964 Y10.9840 Z-6.0000 S1000
G1 F600 X5.4200 Y10.9091 Z-6.0000 S1000
G1 F600 X5.1006 Y10.6958 Z-6.0000 S1000
G1 F600 X4.8873 Y10.3764 Z-6.0000 S1000
G1 F600 X4.8124 Y10.0000 Z-6.0000 S1000
G1 F600 X4.8873 Y9.6236 Z-6.0000 S1000
G1 F600 X5.1006 Y9.3042 Z-6.0000 S1000
G1 F600 X5.4200 Y9.0909 Z-6.0000 S1000
G1 F600 X5.7964 Y9.0160 Z-6.0000 S1000
G1 F600 X6.1727 Y9.0909 Z-6.0000 S1000
G1 F100 Z-7.0000
G1 F600 X6.4922 Y9.3043 Z-7.0000 S1000
G1 F600 X6.7055 Y9.6236 Z-7.0000 S1000
G1 F600 X6.7804 Y10.0000 Z-7.0000 S1000
G1 F600 X6.7055 Y10.3764 Z-7.0000 S1000
G1 F600 X6.4922 Y10.6957 Z-7.0000 S1000
G1 F600 X6.1727 Y10.9091 Z-7.0000 S1000
G1 F600 X5.7964 Y10.9840 Z-7.0000 S1000
G1 F600 X5.4200 Y10.9091 Z-7.0000 S1000
G1 F600 X5.1006 Y10.6958 Z-7.0000 S1000
G1 F600 X4.8873 Y10.3764 Z-7.0000 S1000
G1 F600 X4.8124 Y10.0000 Z-7.0000 S1000
G1 F600 X4.8873 Y9.6236 Z-7.0000 S1000
G1 F600 X5.1006 Y9.3042 Z-7.0000 S1000
G1 F600 X5.4200 Y9.0909 Z-7.0000 S1000
G1 F600 X5.7964 Y9.0160 Z-7.0000 S1000
G1 F600 X6.1727 Y9.0909 Z-7.0000 S1000
G1 F100 Z-8.0000
G1 F600 X6.4922 Y9.3043 Z-8.0000 S1000
G1 F600 X6.7055 Y9.6236 Z-8.0000 S1000
G1 F600 X6.7804 Y10.0000 Z-8.0000 S1000
G1 F600 X6.7055 Y10.3764 Z-8.0000 S1000
G1 F600 X6.4922 Y10.6957 Z-8.0000 S1000
G1 F600 X6.1727 Y10.9091 Z-8.0000 S1000
G1 F600 X5.7964 Y10.9840 Z-8.0000 S1000
G1 F600 X5.4200 Y10.9091 Z-8.0000 S1000
G1 F600 X5.1006 Y10.6958 Z-8.0000 S1000
G1 F600 X4.8873 Y10.3764 Z-8.0000 S1000
G1 F600 X4.8124 Y10.0000 Z-8.0000 S1000
G1 F600 X4.8873 Y9.6236 Z-8.0000 S1000
G1 F600 X5.1006 Y9.3042 Z-8.0000 S1000
G1 F600 X5.4200 Y9.0909 Z-8.0000 S1000
G1 F600 X5.7964 Y9.0160 Z-8.0000 S1000
G1 F600 X6.1727 Y9.0909 Z-8.0000 S1000
G1 F100 Z-9.0000
G1 F600 X6.4922 Y9.3043 Z-9.0000 S1000
G1 F600 X6.7055 Y9.6236 Z-9.0000 S1000
G1 F600 X6.7804 Y10.0000 Z-9.0000 S1000
G1 F600 X6.7055 Y10.3764 Z-9.0000 S1000
G1 F600 X6.4922 Y10.6957 Z-9.0000 S1000
G1 F600 X6.1727 Y10.9091 Z-9.0000 S1000
G1 F600 X5.7964 Y10.9840 Z-9.0000 S1000
G1 F600 X5.4200 Y10.9091 Z-9.0000 S1000
G1 F600 X5.1006 Y10.6958 Z-9.0000 S1000
G1 F600 X4.8873 Y10.3764 Z-9.0000 S1000
G1 F600 X4.8124 Y10.0000 Z-9.0000 S1000
G1 F600 X4.8873 Y9.6236 Z-9.0000 S1000
G1 F600 X5.1006 Y9.3042 Z-9.0000 S1000
G1 F600 X5.4200 Y9.0909 Z-9.0000 S1000
G1 F600 X5.7964 Y9.0160 Z-9.0000 S1000
G1 F600 X6.1727 Y9.0909 Z-9.0000 S1000
; retracting back to z-safe
G0 Z10
; Operation 2: CNC: Vector (path outside)
; Endmill Diameter: 3.17

G0 Z10; move to z-safe height
G0 F1000 X10.1964 Y-1.5850

G0 Z0
G1 F100 Z-1.5000
G1 F750 X1.3964 Y-1.5850 Z-1.5000 S1000
G1 F750 X0.9302 Y-1.5149 Z-1.5000 S1000
G1 F750 X0.4798 Y-1.2931 Z-1.5000 S1000
G1 F750 X0.1214 Y-0.9416 Z-1.5000 S1000
G1 F750 X-0.1091 Y-0.4957 Z-1.5000 S1000
G1 F750 X-0.1886 Y0.0000 Z-1.5000 S1000
G1 F750 X-0.1886 Y20.0000 Z-1.5000 S1000
G1 F750 X-0.1185 Y20.4662 Z-1.5000 S1000
G1 F750 X0.1033 Y20.9166 Z-1.5000 S1000
G1 F750 X0.4548 Y21.2750 Z-1.5000 S1000
G1 F750 X0.9007 Y21.5055 Z-1.5000 S1000
G1 F750 X1.3964 Y21.5850 Z-1.5000 S1000
G1 F750 X10.1964 Y21.5850 Z-1.5000 S1000
G1 F750 X10.6626 Y21.5149 Z-1.5000 S1000
G1 F750 X11.1130 Y21.2931 Z-1.5000 S1000
G1 F750 X11.4714 Y20.9416 Z-1.5000 S1000
G1 F750 X11.7019 Y20.4957 Z-1.5000 S1000
G1 F750 X11.7814 Y20.0000 Z-1.5000 S1000
G1 F750 X11.7814 Y0.0000 Z-1.5000 S1000
G1 F750 X11.7113 Y-0.4662 Z-1.5000 S1000
G1 F750 X11.4895 Y-0.9166 Z-1.5000 S1000
G1 F750 X11.1380 Y-1.2750 Z-1.5000 S1000
G1 F750 X10.6921 Y-1.5055 Z-1.5000 S1000
G1 F750 X10.1964 Y-1.5850 Z-1.5000 S1000
G1 F100 Z-3.0000
G1 F750 X1.3964 Y-1.5850 Z-3.0000 S1000
G1 F750 X0.9302 Y-1.5149 Z-3.0000 S1000
G1 F750 X0.4798 Y-1.2931 Z-3.0000 S1000
G1 F750 X0.1214 Y-0.9416 Z-3.0000 S1000
G1 F750 X-0.1091 Y-0.4957 Z-3.0000 S1000
G1 F750 X-0.1886 Y0.0000 Z-3.0000 S1000
G1 F750 X-0.1886 Y20.0000 Z-3.0000 S1000
G1 F750 X-0.1185 Y20.4662 Z-3.0000 S1000
G1 F750 X0.1033 Y20.9166 Z-3.0000 S1000
G1 F750 X0.4548 Y21.2750 Z-3.0000 S1000
G1 F750 X0.9007 Y21.5055 Z-3.0000 S1000
G1 F750 X1.3964 Y21.5850 Z-3.0000 S1000
G1 F750 X10.1964 Y21.5850 Z-3.0000 S1000
G1 F750 X10.6626 Y21.5149 Z-3.0000 S1000
G1 F750 X11.1130 Y21.2931 Z-3.0000 S1000
G1 F750 X11.4714 Y20.9416 Z-3.0000 S1000
G1 F750 X11.7019 Y20.4957 Z-3.0000 S1000
G1 F750 X11.7814 Y20.0000 Z-3.0000 S1000
G1 F750 X11.7814 Y0.0000 Z-3.0000 S1000
G1 F750 X11.7113 Y-0.4662 Z-3.0000 S1000
G1 F750 X11.4895 Y-0.9166 Z-3.0000 S1000
G1 F750 X11.1380 Y-1.2750 Z-3.0000 S1000
G1 F750 X10.6921 Y-1.5055 Z-3.0000 S1000
G1 F750 X10.1964 Y-1.5850 Z-3.0000 S1000
G1 F100 Z-4.5000
G1 F750 X1.3964 Y-1.5850 Z-4.5000 S1000
G1 F750 X0.9302 Y-1.5149 Z-4.5000 S1000
G1 F750 X0.4798 Y-1.2931 Z-4.5000 S1000
G1 F750 X0.1214 Y-0.9416 Z-4.5000 S1000
G1 F750 X-0.1091 Y-0.4957 Z-4.5000 S1000
G1 F750 X-0.1886 Y0.0000 Z-4.5000 S1000
G1 F750 X-0.1886 Y20.0000 Z-4.5000 S1000
G1 F750 X-0.1185 Y20.4662 Z-4.5000 S1000
G1 F750 X0.1033 Y20.9166 Z-4.5000 S1000
G1 F750 X0.4548 Y21.2750 Z-4.5000 S1000
G1 F750 X0.9007 Y21.5055 Z-4.5000 S1000
G1 F750 X1.3964 Y21.5850 Z-4.5000 S1000
G1 F750 X10.1964 Y21.5850 Z-4.5000 S1000
G1 F750 X10.6626 Y21.5149 Z-4.5000 S1000
G1 F750 X11.1130 Y21.2931 Z-4.5000 S1000
G1 F750 X11.4714 Y20.9416 Z-4.5000 S1000
G1 F750 X11.7019 Y20.4957 Z-4.5000 S1000
G1 F750 X11.7814 Y20.0000 Z-4.5000 S1000
G1 F750 X11.7814 Y0.0000 Z-4.5000 S1000
G1 F750 X11.7113 Y-0.4662 Z-4.5000 S1000
G1 F750 X11.4895 Y-0.9166 Z-4.5000 S1000
G1 F750 X11.1380 Y-1.2750 Z-4.5000 S1000
G1 F750 X10.6921 Y-1.5055 Z-4.5000 S1000
G1 F750 X10.1964 Y-1.5850 Z-4.5000 S1000
G1 F100 Z-6.0000
G1 F750 X1.3964 Y-1.5850 Z-6.0000 S1000
G1 F750 X0.9302 Y-1.5149 Z-6.0000 S1000
G1 F750 X0.4798 Y-1.2931 Z-6.0000 S1000
G1 F750 X0.1214 Y-0.9416 Z-6.0000 S1000
G1 F750 X-0.1091 Y-0.4957 Z-6.0000 S1000
G1 F750 X-0.1886 Y0.0000 Z-6.0000 S1000
G1 F750 X-0.1886 Y20.0000 Z-6.0000 S1000
G1 F750 X-0.1185 Y20.4662 Z-6.0000 S1000
G1 F750 X0.1033 Y20.9166 Z-6.0000 S1000
G1 F750 X0.4548 Y21.2750 Z-6.0000 S1000
G1 F750 X0.9007 Y21.5055 Z-6.0000 S1000
G1 F750 X1.3964 Y21.5850 Z-6.0000 S1000
G1 F750 X10.1964 Y21.5850 Z-6.0000 S1000
G1 F750 X10.6626 Y21.5149 Z-6.0000 S1000
G1 F750 X11.1130 Y21.2931 Z-6.0000 S1000
G1 F750 X11.4714 Y20.9416 Z-6.0000 S1000
G1 F750 X11.7019 Y20.4957 Z-6.0000 S1000
G1 F750 X11.7814 Y20.0000 Z-6.0000 S1000
G1 F750 X11.7814 Y0.0000 Z-6.0000 S1000
G1 F750 X11.7113 Y-0.4662 Z-6.0000 S1000
G1 F750 X11.4895 Y-0.9166 Z-6.0000 S1000
G1 F750 X11.1380 Y-1.2750 Z-6.0000 S1000
G1 F750 X10.6921 Y-1.5055 Z-6.0000 S1000
G1 F750 X10.1964 Y-1.5850 Z-6.0000 S1000
G1 F100 Z-7.5000
G1 F750 X1.3964 Y-1.5850 Z-7.5000 S1000
G1 F750 X0.9302 Y-1.5149 Z-7.5000 S1000
G1 F750 X0.4798 Y-1.2931 Z-7.5000 S1000
G1 F750 X0.1214 Y-0.9416 Z-7.5000 S1000
G1 F750 X-0.1091 Y-0.4957 Z-7.5000 S1000
G1 F750 X-0.1886 Y0.0000 Z-7.5000 S1000
G1 F750 X-0.1886 Y20.0000 Z-7.5000 S1000
G1 F750 X-0.1185 Y20.4662 Z-7.5000 S1000
G1 F750 X0.1033 Y20.9166 Z-7.5000 S1000
G1 F750 X0.4548 Y21.2750 Z-7.5000 S1000
G1 F750 X0.9007 Y21.5055 Z-7.5000 S1000
G1 F750 X1.3964 Y21.5850 Z-7.5000 S1000
G1 F750 X10.1964 Y21.5850 Z-7.5000 S1000
G1 F750 X10.6626 Y21.5149 Z-7.5000 S1000
G1 F750 X11.1130 Y21.2931 Z-7.5000 S1000
G1 F750 X11.4714 Y20.9416 Z-7.5000 S1000
G1 F750 X11.7019 Y20.4957 Z-7.5000 S1000
G1 F750 X11.7814 Y20.0000 Z-7.5000 S1000
G1 F750 X11.7814 Y0.0000 Z-7.5000 S1000
G1 F750 X11.7113 Y-0.4662 Z-7.5000 S1000
G1 F750 X11.4895 Y-0.9166 Z-7.5000 S1000
G1 F750 X11.1380 Y-1.2750 Z-7.5000 S1000
G1 F750 X10.6921 Y-1.5055 Z-7.5000 S1000
G1 F750 X10.1964 Y-1.5850 Z-7.5000 S1000
G1 F100 Z-9.0000
G1 F750 X1.3964 Y-1.5850 Z-9.0000 S1000
G1 F750 X0.9302 Y-1.5149 Z-9.0000 S1000
G1 F750 X0.4798 Y-1.2931 Z-9.0000 S1000
G1 F750 X0.1214 Y-0.9416 Z-9.0000 S1000
G1 F750 X-0.1091 Y-0.4957 Z-9.0000 S1000
G1 F750 X-0.1886 Y0.0000 Z-9.0000 S1000
G1 F750 X-0.1886 Y20.0000 Z-9.0000 S1000
G1 F750 X-0.1185 Y20.4662 Z-9.0000 S1000
G1 F750 X0.1033 Y20.9166 Z-9.0000 S1000
G1 F750 X0.4548 Y21.2750 Z-9.0000 S1000
G1 F750 X0.9007 Y21.5055 Z-9.0000 S1000
G1 F750 X1.3964 Y21.5850 Z-9.0000 S1000
G1 F750 X10.1964 Y21.5850 Z-9.0000 S1000
G1 F750 X10.6626 Y21.5149 Z-9.0000 S1000
G1 F750 X11.1130 Y21.2931 Z-9.0000 S1000
G1 F750 X11.4714 Y20.9416 Z-9.0000 S1000
G1 F750 X11.7019 Y20.4957 Z-9.0000 S1000
G1 F750 X11.7814 Y20.0000 Z-9.0000 S1000
G1 F750 X11.7814 Y0.0000 Z-9.0000 S1000
G1 F750 X11.7113 Y-0.4662 Z-9.0000 S1000
G1 F750 X11.4895 Y-0.9166 Z-9.0000 S1000
G1 F750 X11.1380 Y-1.2750 Z-9.0000 S1000
G1 F750 X10.6921 Y-1.5055 Z-9.0000 S1000
G1 F750 X10.1964 Y-1.5850 Z-9.0000 S1000
; retracting back to z-safe
G0 Z10

M5 S0; Spindle Off
